#<amostra> <variancia> <linux(ms)> <fbsd(ms)> repetido 20 vezes
1 1 2.092 3.323
2 2 4.975 9.984
3 3 7.916 16.342
4 4 10.682 23.056
5 5 13.219 31.068
6 6 16.301 39.376
7 7 18.375 47.302
8 8 21.470 54.544
9 9 23.673 63.727
10 10 26.661 75.355
11 11 28.366 78.893
12 12 30.981 91.932
13 13 33.738 99.882
14 14 34.673 106.199
15 15 34.885 112.762
16 16 38.086 120.760
17 17 39.540 131.194
18 18 40.756 143.412
19 19 43.826 143.244
20 20 46.269 152.308
21 21 47.775 164.823
22 22 50.254 172.537
23 23 53.250 182.130
24 24 56.746 204.063
25 25 57.409 203.421
26 26 59.532 215.717
27 27 62.109 220.866
28 28 64.254 233.993
29 29 65.367 248.936
30 30 65.727 261.671
31 31 66.807 277.872
32 32 66.985 284.791
33 33 68.031 283.352
34 34 69.443 294.008
35 35 70.095 325.004
36 36 71.700 314.641
37 37 72.007 339.648
38 38 73.567 354.736
39 39 74.157 357.833
40 40 74.416 369.759
41 41 74.663 369.181
42 42 75.914 393.101
43 43 77.309 406.239
44 44 79.087 417.840
45 45 81.244 439.987
46 46 81.285 431.663
47 47 81.141 435.264
48 48 82.919 463.952
49 49 81.884 457.820
50 50 83.686 474.159
51 51 84.186 494.836
52 52 83.837 512.532
53 53 86.756 529.248
54 54 87.645 536.343
55 55 89.163 534.760
56 56 90.542 562.255
57 57 91.108 556.591
58 58 92.413 565.434
59 59 93.986 600.175
60 60 94.546 589.044
61 61 96.006 613.501
62 62 96.306 616.010
63 63 98.288 618.217
64 64 100.811 621.318
65 65 101.102 660.457
66 66 102.852 815.273
67 67 103.814 860.866
68 68 104.163 859.809
69 69 104.726 868.115
70 70 105.447 870.791
71 71 107.878 910.979
72 72 107.250 927.199
73 73 109.290 937.950
74 74 111.714 938.374
75 75 112.188 953.292
76 76 113.767 986.666
77 77 115.534 987.157
78 78 116.139 1035.352
79 79 117.302 1035.087
80 80 118.634 1040.081
81 81 120.155 1058.847
82 82 119.812 1093.313
83 83 121.335 1094.006
84 84 123.460 1131.259
85 85 124.195 1136.192
86 86 124.908 1162.625
87 87 127.884 1170.498
88 88 127.504 1187.468
89 89 128.748 1185.295
90 90 130.694 1217.234
91 91 130.940 1239.918
92 92 133.486 1236.814
93 93 134.974 1234.404
94 94 135.428 1297.019
95 95 136.925 1299.090
96 96 137.559 1316.933
97 97 139.788 1326.058
98 98 140.524 1337.973
99 99 140.771 1312.030
100 100 143.950 1382.932
101 101 144.958 1416.944
102 102 146.045 1421.623
103 103 146.216 1402.201
104 104 146.225 1424.395
105 105 148.637 1457.773
106 106 148.871 1488.648
107 107 149.539 1525.421
108 108 150.085 1527.754
109 109 149.922 1532.643
110 110 149.711 1522.827
111 111 152.768 1571.867
112 112 162.801 1610.557
113 113 169.954 1612.090
114 114 170.942 1653.334
115 115 171.984 1641.281
116 116 170.762 1648.372
117 117 171.136 1695.065
118 118 166.421 1710.195
119 119 155.514 1744.805
120 120 151.918 1782.789
121 121 152.149 1791.422
122 122 153.538 1788.984
123 123 156.035 1802.659
124 124 156.499 1797.001
125 125 157.516 1846.904
126 126 159.360 1853.221
127 127 160.365 1840.804
128 128 161.830 1892.818
129 129 164.444 1904.116
130 130 169.130 1935.506
131 131 171.926 1936.781
132 132 173.831 1999.708
133 133 175.477 1995.061
134 134 176.833 2026.532
135 135 178.180 2031.919
136 136 179.500 2026.768
137 137 180.557 2038.484
138 138 181.812 2079.541
139 139 182.967 2114.263
140 140 184.885 2153.189
141 141 186.086 2126.864
142 142 185.900 2154.907
143 143 188.061 2187.526
144 144 188.802 2202.065
145 145 189.366 2259.387
146 146 190.760 2239.738
147 147 190.990 2269.821
148 148 192.775 2337.337
149 149 193.706 2285.226
150 150 194.692 2347.987
